<svg width="211" height="188" viewBox="0 0 211 188" fill="none" xmlns="http://www.w3.org/2000/svg">
<g clip-path="url(#clip0)">
<path d="M210.836 55.2725C210.341 45.2834 208.528 38.4159 205.931 32.4651C203.252 26.1486 199.13 20.4934 193.73 15.7921C188.454 11.0178 182.065 7.30789 175.057 4.958C168.34 2.64398 160.673 1.02861 149.461 0.588188C138.166 0.110465 134.581 0 105.933 0C77.2863 0 73.7005 0.110465 62.4474 0.550889C51.2362 0.991313 43.5285 2.60811 36.8514 4.9207C29.7604 7.30789 23.4134 10.9805 18.137 15.7921C12.7785 20.4934 8.61639 26.1859 5.97741 32.4293C3.38029 38.4159 1.5673 45.2461 1.07299 55.2352C0.536821 65.299 0.412842 68.4939 0.412842 94.0184C0.412842 119.543 0.536821 122.738 1.03113 132.764C1.52543 142.753 3.34003 149.621 5.93715 155.572C8.61639 161.888 12.7785 167.543 18.137 172.245C23.4134 177.019 29.8023 180.729 36.8095 183.079C43.5285 185.393 51.1943 187.008 62.4072 187.449C73.6587 187.89 77.246 187.999 105.893 187.999C134.54 187.999 138.126 187.89 149.379 187.449C160.59 187.008 168.298 185.393 174.975 183.079C189.156 178.194 200.367 168.205 205.849 155.572C208.445 149.585 210.259 142.753 210.754 132.764C211.248 122.738 211.372 119.543 211.372 94.0184C211.372 68.4939 211.33 65.299 210.836 55.2725ZM191.835 132.03C191.381 141.211 189.65 146.169 188.207 149.475C184.662 157.665 177.366 164.165 168.174 167.324C164.464 168.609 158.86 170.151 148.595 170.555C137.466 170.996 134.128 171.105 105.975 171.105C77.8224 171.105 74.4428 170.996 63.3539 170.555C53.0492 170.151 47.4846 168.609 43.7749 167.324C39.2006 165.818 35.0368 163.43 31.6572 160.309C28.1535 157.26 25.4743 153.588 23.7837 149.512C22.341 146.206 20.6101 141.211 20.1577 132.067C19.6618 122.151 19.5394 119.176 19.5394 94.0915C19.5394 69.0074 19.6618 65.9962 20.1577 56.1175C20.6101 46.936 22.341 41.978 23.7837 38.6727C25.4743 34.5955 28.1535 30.8871 31.699 27.8744C35.1189 24.7527 39.2408 22.3655 43.8168 20.8606C47.5265 19.5752 53.1329 18.033 63.3958 17.6284C74.5249 17.188 77.8643 17.0776 106.016 17.0776C134.21 17.0776 137.548 17.188 148.637 17.6284C158.942 18.033 164.506 19.5752 168.216 20.8606C172.79 22.3655 176.954 24.7527 180.334 27.8744C183.837 30.9229 186.517 34.5955 188.207 38.6727C189.65 41.978 191.381 46.9719 191.835 56.1175C192.329 66.0335 192.453 69.0074 192.453 94.0915C192.453 119.176 192.329 122.114 191.835 132.03Z" fill="#FFCB44"/>
<path d="M105.891 45.7238C75.9672 45.7238 51.6882 67.3548 51.6882 94.0184C51.6882 120.682 75.9672 142.313 105.891 142.313C135.817 142.313 160.094 120.682 160.094 94.0184C160.094 67.3548 135.817 45.7238 105.891 45.7238ZM105.891 125.346C86.478 125.346 70.7311 111.317 70.7311 94.0184C70.7311 76.7199 86.478 62.6909 105.891 62.6909C125.306 62.6909 141.051 76.7199 141.051 94.0184C141.051 111.317 125.306 125.346 105.891 125.346Z" fill="#FFCB44"/>
<path d="M174.893 43.8143C174.893 50.0405 169.227 55.0889 162.237 55.0889C155.249 55.0889 149.583 50.0405 149.583 43.8143C149.583 37.5867 155.249 32.5397 162.237 32.5397C169.227 32.5397 174.893 37.5867 174.893 43.8143Z" fill="#FFCB44"/>
</g>
<defs>
<clipPath id="clip0">
<rect width="211" height="188" fill="white"/>
</clipPath>
</defs>
</svg>
