<svg width="202" height="186" viewBox="0 0 202 186" fill="none" xmlns="http://www.w3.org/2000/svg">
<g clip-path="url(#clip0)">
<path d="M187.432 0H14.5684C6.52209 0 0 6.00549 0 13.4144V172.586C0 179.995 6.52209 186 14.5684 186H187.432C195.478 186 202 179.995 202 172.586V13.4144C202 6.00549 195.478 0 187.432 0V0ZM71.6506 140.59H47.0525V72.4476H71.6506V140.59ZM59.3523 63.1428H59.192C50.9377 63.1428 45.5992 57.9107 45.5992 51.3717C45.5992 44.685 51.101 39.5977 59.5157 39.5977C67.9303 39.5977 73.1085 44.685 73.2688 51.3717C73.2688 57.9107 67.9303 63.1428 59.3523 63.1428ZM160.346 140.59H135.751V104.135C135.751 94.9739 132.19 88.7258 123.289 88.7258C116.495 88.7258 112.448 92.9404 110.669 97.0089C110.019 98.4648 109.86 100.5 109.86 102.536V140.59H85.2634C85.2634 140.59 85.5855 78.8405 85.2634 72.4476H109.86V82.0959C113.129 77.4527 118.977 70.8484 132.028 70.8484C148.211 70.8484 160.346 80.5874 160.346 101.517V140.59Z" fill="#FFCB44"/>
</g>
<defs>
<clipPath id="clip0">
<rect width="202" height="186" fill="white"/>
</clipPath>
</defs>
</svg>
